EV22_Quartus/simulation/qsim/uc1.msim.vcd
$comment
	File created using the following command:
		vcd file uc1.msim.vcd -direction
$end
$date
	Thu May 19 18:30:10 2022
$end
$version
	ModelSim Version 2020.1
$end
$timescale
	1ps
$end

$scope module uc1_vlg_vec_tst $end
$var reg 1 ! clk $end
$var reg 1 " nRST $end
$var wire 1 # C [7] $end
$var wire 1 $ C [6] $end
$var wire 1 % C [5] $end
$var wire 1 & C [4] $end
$var wire 1 ' C [3] $end
$var wire 1 ( C [2] $end
$var wire 1 ) C [1] $end
$var wire 1 * C [0] $end
$var wire 1 + OPCODE [7] $end
$var wire 1 , OPCODE [6] $end
$var wire 1 - OPCODE [5] $end
$var wire 1 . OPCODE [4] $end
$var wire 1 / OPCODE [3] $end
$var wire 1 0 OPCODE [2] $end
$var wire 1 1 OPCODE [1] $end
$var wire 1 2 OPCODE [0] $end
$var wire 1 3 PC [7] $end
$var wire 1 4 PC [6] $end
$var wire 1 5 PC [5] $end
$var wire 1 6 PC [4] $end
$var wire 1 7 PC [3] $end
$var wire 1 8 PC [2] $end
$var wire 1 9 PC [1] $end
$var wire 1 : PC [0] $end
$var wire 1 ; REG0 [7] $end
$var wire 1 < REG0 [6] $end
$var wire 1 = REG0 [5] $end
$var wire 1 > REG0 [4] $end
$var wire 1 ? REG0 [3] $end
$var wire 1 @ REG0 [2] $end
$var wire 1 A REG0 [1] $end
$var wire 1 B REG0 [0] $end
$var wire 1 C REG1 [7] $end
$var wire 1 D REG1 [6] $end
$var wire 1 E REG1 [5] $end
$var wire 1 F REG1 [4] $end
$var wire 1 G REG1 [3] $end
$var wire 1 H REG1 [2] $end
$var wire 1 I REG1 [1] $end
$var wire 1 J REG1 [0] $end
$var wire 1 K REG2 [7] $end
$var wire 1 L REG2 [6] $end
$var wire 1 M REG2 [5] $end
$var wire 1 N REG2 [4] $end
$var wire 1 O REG2 [3] $end
$var wire 1 P REG2 [2] $end
$var wire 1 Q REG2 [1] $end
$var wire 1 R REG2 [0] $end

$scope module i1 $end
$var wire 1 S gnd $end
$var wire 1 T vcc $end
$var wire 1 U unknown $end
$var tri1 1 V devclrn $end
$var tri1 1 W devpor $end
$var tri1 1 X devoe $end
$var wire 1 Y C[7]~output_o $end
$var wire 1 Z C[6]~output_o $end
$var wire 1 [ C[5]~output_o $end
$var wire 1 \ C[4]~output_o $end
$var wire 1 ] C[3]~output_o $end
$var wire 1 ^ C[2]~output_o $end
$var wire 1 _ C[1]~output_o $end
$var wire 1 ` C[0]~output_o $end
$var wire 1 a REG0[7]~output_o $end
$var wire 1 b REG0[6]~output_o $end
$var wire 1 c REG0[5]~output_o $end
$var wire 1 d REG0[4]~output_o $end
$var wire 1 e REG0[3]~output_o $end
$var wire 1 f REG0[2]~output_o $end
$var wire 1 g REG0[1]~output_o $end
$var wire 1 h REG0[0]~output_o $end
$var wire 1 i OPCODE[7]~output_o $end
$var wire 1 j OPCODE[6]~output_o $end
$var wire 1 k OPCODE[5]~output_o $end
$var wire 1 l OPCODE[4]~output_o $end
$var wire 1 m OPCODE[3]~output_o $end
$var wire 1 n OPCODE[2]~output_o $end
$var wire 1 o OPCODE[1]~output_o $end
$var wire 1 p OPCODE[0]~output_o $end
$var wire 1 q PC[7]~output_o $end
$var wire 1 r PC[6]~output_o $end
$var wire 1 s PC[5]~output_o $end
$var wire 1 t PC[4]~output_o $end
$var wire 1 u PC[3]~output_o $end
$var wire 1 v PC[2]~output_o $end
$var wire 1 w PC[1]~output_o $end
$var wire 1 x PC[0]~output_o $end
$var wire 1 y REG1[7]~output_o $end
$var wire 1 z REG1[6]~output_o $end
$var wire 1 { REG1[5]~output_o $end
$var wire 1 | REG1[4]~output_o $end
$var wire 1 } REG1[3]~output_o $end
$var wire 1 ~ REG1[2]~output_o $end
$var wire 1 !! REG1[1]~output_o $end
$var wire 1 "! REG1[0]~output_o $end
$var wire 1 #! REG2[7]~output_o $end
$var wire 1 $! REG2[6]~output_o $end
$var wire 1 %! REG2[5]~output_o $end
$var wire 1 &! REG2[4]~output_o $end
$var wire 1 '! REG2[3]~output_o $end
$var wire 1 (! REG2[2]~output_o $end
$var wire 1 )! REG2[1]~output_o $end
$var wire 1 *! REG2[0]~output_o $end
$var wire 1 +! clk~input_o $end
$var wire 1 ,! clk~inputclkctrl_outclk $end
$var wire 1 -! inst4|q[0]~21_combout $end
$var wire 1 .! nRST~input_o $end
$var wire 1 /! nRST~inputclkctrl_outclk $end
$var wire 1 0! PCreg|q[0]~feeder_combout $end
$var wire 1 1! inst4|q[1]~7_combout $end
$var wire 1 2! PCreg|q[1]~feeder_combout $end
$var wire 1 3! inst4|q[1]~8 $end
$var wire 1 4! inst4|q[2]~9_combout $end
$var wire 1 5! PCreg|q[2]~feeder_combout $end
$var wire 1 6! inst4|q[2]~10 $end
$var wire 1 7! inst4|q[3]~11_combout $end
$var wire 1 8! PCreg|q[3]~feeder_combout $end
$var wire 1 9! inst4|q[3]~12 $end
$var wire 1 :! inst4|q[4]~13_combout $end
$var wire 1 ;! PCreg|q[4]~feeder_combout $end
$var wire 1 <! inst4|q[4]~14 $end
$var wire 1 =! inst4|q[5]~15_combout $end
$var wire 1 >! PCreg|q[5]~feeder_combout $end
$var wire 1 ?! inst4|q[5]~16 $end
$var wire 1 @! inst4|q[6]~17_combout $end
$var wire 1 A! PCreg|q[6]~feeder_combout $end
$var wire 1 B! inst4|q[6]~18 $end
$var wire 1 C! inst4|q[7]~19_combout $end
$var wire 1 D! PCreg|q[7]~feeder_combout $end
$var wire 1 E! inst10|alu~0_combout $end
$var wire 1 F! inst10|WideOr2~0_combout $end
$var wire 1 G! inst10|alu~1_combout $end
$var wire 1 H! inst10|WideOr5~0_combout $end
$var wire 1 I! inst10|WideOr5~1_combout $end
$var wire 1 J! inst10|Decoder0~0_combout $end
$var wire 1 K! inst10|Decoder0~1_combout $end
$var wire 1 L! inst10|WideOr5~1clkctrl_outclk $end
$var wire 1 M! inst10|WideOr6~0_combout $end
$var wire 1 N! inst10|WideOr6~1_combout $end
$var wire 1 O! inst10|WideOr2~1_combout $end
$var wire 1 P! inst10|Decoder0~2_combout $end
$var wire 1 Q! inst10|save0~combout $end
$var wire 1 R! inst5|Add0~0_combout $end
$var wire 1 S! inst5|Add0~1_combout $end
$var wire 1 T! instmux2|LPM_MUX_component|auto_generated|result_node[7]~0_combout $end
$var wire 1 U! inst5|Add0~2_combout $end
$var wire 1 V! inst5|Add0~3_combout $end
$var wire 1 W! inst5|Add0~4_combout $end
$var wire 1 X! inst5|Add0~5_combout $end
$var wire 1 Y! instmux2|LPM_MUX_component|auto_generated|result_node[4]~3_combout $end
$var wire 1 Z! inst5|Add0~8_combout $end
$var wire 1 [! inst5|Add0~9_combout $end
$var wire 1 \! instmux2|LPM_MUX_component|auto_generated|result_node[2]~5_combout $end
$var wire 1 ]! inst5|Mux8~0_combout $end
$var wire 1 ^! inst5|Mux8~0clkctrl_outclk $end
$var wire 1 _! instmux2|LPM_MUX_component|auto_generated|result_node[1]~6_combout $end
$var wire 1 `! inst5|Add0~14_combout $end
$var wire 1 a! inst5|Add0~15_combout $end
$var wire 1 b! inst5|Add0~17_cout $end
$var wire 1 c! inst5|Add0~18_combout $end
$var wire 1 d! inst5|Add0~41_combout $end
$var wire 1 e! instmux2|LPM_MUX_component|auto_generated|result_node[0]~7_combout $end
$var wire 1 f! inst5|Add0~19 $end
$var wire 1 g! inst5|Add0~20_combout $end
$var wire 1 h! inst5|Add0~40_combout $end
$var wire 1 i! inst5|Add0~12_combout $end
$var wire 1 j! inst5|Add0~13_combout $end
$var wire 1 k! inst5|Add0~21 $end
$var wire 1 l! inst5|Add0~22_combout $end
$var wire 1 m! inst5|Add0~39_combout $end
$var wire 1 n! inst5|Add0~10_combout $end
$var wire 1 o! inst5|Add0~11_combout $end
$var wire 1 p! inst5|Add0~23 $end
$var wire 1 q! inst5|Add0~24_combout $end
$var wire 1 r! inst5|Add0~38_combout $end
$var wire 1 s! instmux2|LPM_MUX_component|auto_generated|result_node[3]~4_combout $end
$var wire 1 t! inst5|Add0~25 $end
$var wire 1 u! inst5|Add0~26_combout $end
$var wire 1 v! inst5|Add0~37_combout $end
$var wire 1 w! inst5|Add0~6_combout $end
$var wire 1 x! inst5|Add0~7_combout $end
$var wire 1 y! inst5|Add0~27 $end
$var wire 1 z! inst5|Add0~28_combout $end
$var wire 1 {! inst5|Add0~36_combout $end
$var wire 1 |! instmux2|LPM_MUX_component|auto_generated|result_node[5]~2_combout $end
$var wire 1 }! inst5|Add0~29 $end
$var wire 1 ~! inst5|Add0~30_combout $end
$var wire 1 !" inst5|Add0~35_combout $end
$var wire 1 "" instmux2|LPM_MUX_component|auto_generated|result_node[6]~1_combout $end
$var wire 1 #" inst5|Add0~31 $end
$var wire 1 $" inst5|Add0~32_combout $end
$var wire 1 %" inst5|Add0~34_combout $end
$var wire 1 &" inst5|out [7] $end
$var wire 1 '" inst5|out [6] $end
$var wire 1 (" inst5|out [5] $end
$var wire 1 )" inst5|out [4] $end
$var wire 1 *" inst5|out [3] $end
$var wire 1 +" inst5|out [2] $end
$var wire 1 ," inst5|out [1] $end
$var wire 1 -" inst5|out [0] $end
$var wire 1 ." inst|altsyncram_component|auto_generated|q_a [7] $end
$var wire 1 /" inst|altsyncram_component|auto_generated|q_a [6] $end
$var wire 1 0" inst|altsyncram_component|auto_generated|q_a [5] $end
$var wire 1 1" inst|altsyncram_component|auto_generated|q_a [4] $end
$var wire 1 2" inst|altsyncram_component|auto_generated|q_a [3] $end
$var wire 1 3" inst|altsyncram_component|auto_generated|q_a [2] $end
$var wire 1 4" inst|altsyncram_component|auto_generated|q_a [1] $end
$var wire 1 5" inst|altsyncram_component|auto_generated|q_a [0] $end
$var wire 1 6" inst4|q [7] $end
$var wire 1 7" inst4|q [6] $end
$var wire 1 8" inst4|q [5] $end
$var wire 1 9" inst4|q [4] $end
$var wire 1 :" inst4|q [3] $end
$var wire 1 ;" inst4|q [2] $end
$var wire 1 <" inst4|q [1] $end
$var wire 1 =" inst4|q [0] $end
$var wire 1 >" instREG0|q [7] $end
$var wire 1 ?" instREG0|q [6] $end
$var wire 1 @" instREG0|q [5] $end
$var wire 1 A" instREG0|q [4] $end
$var wire 1 B" instREG0|q [3] $end
$var wire 1 C" instREG0|q [2] $end
$var wire 1 D" instREG0|q [1] $end
$var wire 1 E" instREG0|q [0] $end
$var wire 1 F" PCreg|q [7] $end
$var wire 1 G" PCreg|q [6] $end
$var wire 1 H" PCreg|q [5] $end
$var wire 1 I" PCreg|q [4] $end
$var wire 1 J" PCreg|q [3] $end
$var wire 1 K" PCreg|q [2] $end
$var wire 1 L" PCreg|q [1] $end
$var wire 1 M" PCreg|q [0] $end
$var wire 1 N" instREG1|q [7] $end
$var wire 1 O" instREG1|q [6] $end
$var wire 1 P" instREG1|q [5] $end
$var wire 1 Q" instREG1|q [4] $end
$var wire 1 R" instREG1|q [3] $end
$var wire 1 S" instREG1|q [2] $end
$var wire 1 T" instREG1|q [1] $end
$var wire 1 U" instREG1|q [0] $end
$var wire 1 V" inst10|selA [1] $end
$var wire 1 W" inst10|selA [0] $end
$var wire 1 X" instREG2|q [7] $end
$var wire 1 Y" instREG2|q [6] $end
$var wire 1 Z" instREG2|q [5] $end
$var wire 1 [" instREG2|q [4] $end
$var wire 1 \" instREG2|q [3] $end
$var wire 1 ]" instREG2|q [2] $end
$var wire 1 ^" instREG2|q [1] $end
$var wire 1 _" instREG2|q [0] $end
$var wire 1 `" inst10|alu [3] $end
$var wire 1 a" inst10|alu [2] $end
$var wire 1 b" inst10|alu [1] $end
$var wire 1 c" inst10|alu [0] $end
$var wire 1 d" inst10|selB [1] $end
$var wire 1 e" inst10|selB [0] $end
$var wire 1 f" inst|altsyncram_component|auto_generated|ram_block1a1_PORTADATAOUT_bus [17] $end
$var wire 1 g" inst|altsyncram_component|auto_generated|ram_block1a1_PORTADATAOUT_bus [16] $end
$var wire 1 h" inst|altsyncram_component|auto_generated|ram_block1a1_PORTADATAOUT_bus [15] $end
$var wire 1 i" inst|altsyncram_component|auto_generated|ram_block1a1_PORTADATAOUT_bus [14] $end
$var wire 1 j" inst|altsyncram_component|auto_generated|ram_block1a1_PORTADATAOUT_bus [13] $end
$var wire 1 k" inst|altsyncram_component|auto_generated|ram_block1a1_PORTADATAOUT_bus [12] $end
$var wire 1 l" inst|altsyncram_component|auto_generated|ram_block1a1_PORTADATAOUT_bus [11] $end
$var wire 1 m" inst|altsyncram_component|auto_generated|ram_block1a1_PORTADATAOUT_bus [10] $end
$var wire 1 n" inst|altsyncram_component|auto_generated|ram_block1a1_PORTADATAOUT_bus [9] $end
$var wire 1 o" inst|altsyncram_component|auto_generated|ram_block1a1_PORTADATAOUT_bus [8] $end
$var wire 1 p" inst|altsyncram_component|auto_generated|ram_block1a1_PORTADATAOUT_bus [7] $end
$var wire 1 q" inst|altsyncram_component|auto_generated|ram_block1a1_PORTADATAOUT_bus [6] $end
$var wire 1 r" inst|altsyncram_component|auto_generated|ram_block1a1_PORTADATAOUT_bus [5] $end
$var wire 1 s" inst|altsyncram_component|auto_generated|ram_block1a1_PORTADATAOUT_bus [4] $end
$var wire 1 t" inst|altsyncram_component|auto_generated|ram_block1a1_PORTADATAOUT_bus [3] $end
$var wire 1 u" inst|altsyncram_component|auto_generated|ram_block1a1_PORTADATAOUT_bus [2] $end
$var wire 1 v" inst|altsyncram_component|auto_generated|ram_block1a1_PORTADATAOUT_bus [1] $end
$var wire 1 w" inst|altsyncram_component|auto_generated|ram_block1a1_PORTADATAOUT_bus [0] $end
$var wire 1 x" inst|altsyncram_component|auto_generated|ram_block1a0_PORTADATAOUT_bus [17] $end
$var wire 1 y" inst|altsyncram_component|auto_generated|ram_block1a0_PORTADATAOUT_bus [16] $end
$var wire 1 z" inst|altsyncram_component|auto_generated|ram_block1a0_PORTADATAOUT_bus [15] $end
$var wire 1 {" inst|altsyncram_component|auto_generated|ram_block1a0_PORTADATAOUT_bus [14] $end
$var wire 1 |" inst|altsyncram_component|auto_generated|ram_block1a0_PORTADATAOUT_bus [13] $end
$var wire 1 }" inst|altsyncram_component|auto_generated|ram_block1a0_PORTADATAOUT_bus [12] $end
$var wire 1 ~" inst|altsyncram_component|auto_generated|ram_block1a0_PORTADATAOUT_bus [11] $end
$var wire 1 !# inst|altsyncram_component|auto_generated|ram_block1a0_PORTADATAOUT_bus [10] $end
$var wire 1 "# inst|altsyncram_component|auto_generated|ram_block1a0_PORTADATAOUT_bus [9] $end
$var wire 1 ## inst|altsyncram_component|auto_generated|ram_block1a0_PORTADATAOUT_bus [8] $end
$var wire 1 $# inst|altsyncram_component|auto_generated|ram_block1a0_PORTADATAOUT_bus [7] $end
$var wire 1 %# inst|altsyncram_component|auto_generated|ram_block1a0_PORTADATAOUT_bus [6] $end
$var wire 1 &# inst|altsyncram_component|auto_generated|ram_block1a0_PORTADATAOUT_bus [5] $end
$var wire 1 '# inst|altsyncram_component|auto_generated|ram_block1a0_PORTADATAOUT_bus [4] $end
$var wire 1 (# inst|altsyncram_component|auto_generated|ram_block1a0_PORTADATAOUT_bus [3] $end
$var wire 1 )# inst|altsyncram_component|auto_generated|ram_block1a0_PORTADATAOUT_bus [2] $end
$var wire 1 *# inst|altsyncram_component|auto_generated|ram_block1a0_PORTADATAOUT_bus [1] $end
$var wire 1 +# inst|altsyncram_component|auto_generated|ram_block1a0_PORTADATAOUT_bus [0] $end
$upscope $end
$upscope $end
$enddefinitions $end
#0
$dumpvars
0!
1"
0*
0)
0(
0'
0&
0%
0$
0#
02
01
00
0/
0.
0-
0,
0+
0:
09
08
07
06
05
04
03
0B
0A
0@
0?
0>
0=
0<
0;
0J
0I
0H
0G
0F
0E
0D
0C
0R
0Q
0P
0O
0N
0M
0L
0K
0S
1T
xU
1V
1W
1X
0Y
0Z
0[
0\
0]
0^
0_
0`
0a
0b
0c
0d
0e
0f
0g
0h
0i
0j
0k
0l
0m
0n
0o
0p
0q
0r
0s
0t
0u
0v
0w
0x
0y
0z
0{
0|
0}
0~
0!!
0"!
0#!
0$!
0%!
0&!
0'!
0(!
0)!
0*!
0+!
0,!
1-!
1.!
1/!
00!
01!
02!
03!
04!
05!
16!
07!
08!
09!
0:!
0;!
1<!
0=!
0>!
0?!
0@!
0A!
1B!
0C!
0D!
0E!
1F!
0G!
0H!
1I!
0J!
0K!
1L!
0M!
0N!
1O!
0P!
0Q!
0R!
0S!
0T!
0U!
0V!
0W!
0X!
0Y!
0Z!
0[!
0\!
0]!
0^!
0_!
0`!
0a!
0b!
0c!
0d!
0e!
1f!
0g!
0h!
0i!
0j!
0k!
0l!
0m!
0n!
0o!
1p!
0q!
0r!
0s!
0t!
0u!
0v!
0w!
0x!
1y!
0z!
0{!
0|!
0}!
0~!
0!"
0""
1#"
0$"
0%"
0-"
0,"
0+"
0*"
0)"
0("
0'"
0&"
05"
04"
03"
02"
01"
00"
0/"
0."
0="
0<"
0;"
0:"
09"
08"
07"
06"
0E"
0D"
0C"
0B"
0A"
0@"
0?"
0>"
0M"
0L"
0K"
0J"
0I"
0H"
0G"
0F"
0U"
0T"
0S"
0R"
0Q"
0P"
0O"
0N"
0W"
zV"
0_"
0^"
0]"
0\"
0["
0Z"
0Y"
0X"
0c"
zb"
0a"
z`"
0e"
zd"
0w"
0v"
0u"
0t"
0s"
0r"
0q"
0p"
0o"
0n"
0m"
0l"
0k"
0j"
0i"
0h"
0g"
0f"
0+#
0*#
0)#
0(#
0'#
0&#
0%#
0$#
0##
0"#
0!#
0~"
0}"
0|"
0{"
0z"
0y"
0x"
$end
#5000
1!
1+!
1,!
1="
10!
#10000
0!
0+!
0,!
#15000
1!
1+!
1,!
1M"
1x
1:
11!
0-!
#20000
0!
0+!
0,!
#25000
1!
1+!
1,!
1<"
0="
12!
00!
#30000
0!
0+!
0,!
#35000
1!
1+!
1,!
1w"
1+#
14"
15"
1L"
0M"
0x
1w
1p
1o
1P!
1M!
11
12
19
0:
1-!
1Q!
1N!
1a"
1a!
1c!
1d!
1-"
1`
1*
#40000
0!
0+!
0,!
#45000
1!
1+!
1,!
1="
1E"
1h
1e!
1`!
1B
10!
0f!
0c!
1g!
0d!
1h!
0-"
0`
0*
1,"
1_
1)
#50000
0!
0+!
0,!
#55000
1!
1+!
1,!
0E"
1D"
1M"
1x
1g
0h
0e!
0`!
1i!
1_!
13!
0B
1A
1:
01!
0-!
1f!
1c!
1k!
0g!
14!
0k!
1g!
1d!
1l!
0h!
0l!
1h!
1m!
1-"
0,"
0_
1`
0m!
1*
0)
1,"
1+"
1^
1_
1)
1(
0+"
0^
0(
#60000
0!
0+!
0,!
#65000
1!
1+!
1,!
1;"
0<"
0="
1E"
1h
1e!
1`!
1B
15!
02!
00!
0f!
0c!
1k!
0g!
0d!
1l!
0h!
0-"
0`
1m!
0*
0,"
0_
0)
1+"
1^
1(
#70000
0!
0+!
0,!
#75000
1!
1+!
1,!
0E"
0D"
1C"
1K"
0L"
0M"
0x
0w
1v
1f
0g
0h
0e!
0`!
0i!
0_!
1n!
1\!
06!
03!
0B
0A
1@
18
09
0:
04!
1-!
1f!
1c!
0k!
1g!
0p!
0l!
16!
17!
14!
0g!
1d!
1p!
1l!
1h!
1q!
0m!
07!
0h!
0q!
1m!
1r!
1-"
1,"
0+"
0^
1_
1`
0r!
1*
1)
0(
0,"
1+"
1*"
1]
1^
0_
0)
1(
1'
0*"
0]
0'
#80000
0!
0+!
0,!
#85000
1!
1+!
1,!
1="
1E"
1h
1e!
1`!
1B
10!
0f!
0c!
1g!
0d!
1h!
0-"
0`
0*
1,"
1_
1)
#90000
0!
0+!
0,!
#95000
1!
1+!
1,!
0E"
1D"
1M"
1x
1g
0h
0e!
0`!
1i!
1_!
0B
1A
1:
11!
0-!
1f!
1c!
1k!
0g!
0k!
1g!
1d!
0p!
0l!
0h!
1p!
1l!
1h!
1q!
0m!
1-"
0,"
0_
1`
0q!
1m!
1r!
1*
0)
1,"
0+"
0^
1_
0r!
1)
0(
1+"
1*"
1]
1^
1(
1'
0*"
0]
0'
#100000
0!
0+!
0,!
#105000
1!
1+!
1,!
1<"
0="
1E"
1h
1e!
1`!
1B
12!
00!
0f!
0c!
1k!
0g!
0d!
0p!
0l!
0h!
0-"
0`
1q!
0m!
0*
0,"
0_
1r!
0)
0+"
0^
0(
1*"
1]
1'
#110000
0!
0+!
0,!
#115000
1!
1+!
1,!
0w"
1v"
0+#
04"
13"
05"
1B"
0E"
0D"
0C"
1L"
0M"
0x
1w
0f
0g
0h
1e
0p
1n
0o
0P!
0O!
1s!
1Z!
0e!
0`!
0i!
0_!
0n!
0\!
01
10
02
1?
0B
0A
0@
19
0:
1-!
0Q!
1W"
1t!
0q!
1f!
1c!
0k!
1g!
1p!
1l!
0s!
1u!
0r!
0g!
1d!
0l!
1h!
0t!
1q!
1m!
0q!
1v!
0h!
0m!
0u!
1r!
0*"
1-"
1,"
1+"
1^
1_
1`
0]
0r!
0v!
0'
1*
1)
1(
1)"
0,"
0+"
1*"
1]
0^
0_
1\
1&
0)
0(
1'
0*"
0)"
0\
0]
0'
0&
#120000
0!
0+!
0,!
#125000
1!
1+!
1,!
1="
1U"
1"!
1e!
1J
10!
0f!
0c!
1g!
0d!
1h!
0-"
0`
0*
1,"
1_
1)
#130000
0!
0+!
0,!
#135000
1!
1+!
1,!
1T"
0U"
1M"
1x
0"!
1!!
1_!
0e!
13!
1I
0J
1:
01!
0-!
1k!
0g!
1f!
1c!
06!
04!
1l!
0h!
0k!
1g!
1d!
17!
1m!
0l!
1h!
0,"
1-"
1`
0_
0m!
0)
1*
1+"
1,"
1_
1^
1(
1)
0+"
0^
0(
#140000
0!
0+!
0,!
#145000
1!
1+!
1,!
1:"
0;"
0<"
0="
1U"
1"!
1e!
1J
18!
05!
02!
00!
0f!
0c!
1k!
0g!
0d!
1l!
0h!
0-"
0`
1m!
0*
0,"
0_
0)
1+"
1^
1(
#150000
0!
0+!
0,!
#155000
1!
1+!
1,!
0v"
1+#
03"
15"
1S"
0T"
0U"
1J"
0K"
0L"
0M"
0x
0w
0v
1u
0"!
0!!
1~
1p
0n
1O!
0M!
1E!
1\!
0_!
0e!
19!
16!
03!
00
12
1H
0I
0J
17
08
09
0:
07!
14!
1-!
0W"
0N!
1G!
0p!
0l!
0k!
1g!
1f!
1c!
09!
1:!
17!
04!
1s!
0\!
0a"
1e"
1q!
0m!
1p!
1l!
1h!
0g!
1d!
0:!
0l!
1r!
1m!
0h!
0a!
1[!
1n!
0Z!
0+"
1,"
1-"
1`
1_
0^
0m!
0c!
1t!
0q!
1o!
0[!
0(
1)
1*
1*"
1+"
0,"
0_
1^
1]
0d!
1u!
0r!
1l!
0t!
1q!
1'
1(
0)
0+"
0^
1v!
1m!
0u!
1r!
0(
0-"
0*"
0]
0`
0v!
0*
0'
1)"
1+"
1*"
1]
1^
1\
1&
1(
1'
0)"
0\
0&
#160000
0!
0+!
0,!
#165000
1!
1+!
1,!
1="
1]"
1\"
1'!
1(!
1P
1O
10!
#170000
0!
0+!
0,!
#175000
1!
1+!
1,!
0+#
05"
1M"
1x
0p
0E!
02
1:
11!
0-!
0G!
0e"
0r!
0n!
0m!
1Z!
0o!
1[!
0*"
0+"
0^
0]
0l!
1t!
0q!
0'
0(
1u!
#180000
0!
0+!
0,!
#185000
1!
1+!
1,!
1<"
0="
12!
00!
#190000
0!
0+!
0,!
#195000
1!
1+!
1,!
1L"
0M"
0x
1w
19
0:
1-!
#200000
0!
0+!
0,!
#205000
1!
1+!
1,!
1="
10!
#210000
0!
0+!
0,!
#215000
1!
1+!
1,!
1M"
1x
13!
1:
01!
0-!
14!
#220000
0!
0+!
0,!
#225000
1!
1+!
1,!
1;"
0<"
0="
15!
02!
00!
#230000
0!
0+!
0,!
#235000
1!
1+!
1,!
1K"
0L"
0M"
0x
0w
1v
06!
03!
18
09
0:
04!
1-!
19!
16!
07!
14!
09!
1:!
17!
0:!
#240000
0!
0+!
0,!
#245000
1!
1+!
1,!
1="
10!
#250000
0!
0+!
0,!
#255000
1!
1+!
1,!
1M"
1x
1:
11!
0-!
#260000
0!
0+!
0,!
#265000
1!
1+!
1,!
1<"
0="
12!
00!
#270000
0!
0+!
0,!
#275000
1!
1+!
1,!
1L"
0M"
0x
1w
19
0:
1-!
#280000
0!
0+!
0,!
#285000
1!
1+!
1,!
1="
10!
#290000
0!
0+!
0,!
#295000
1!
1+!
1,!
1M"
1x
13!
1:
01!
0-!
06!
04!
19!
07!
1:!
#300000
0!
0+!
0,!
#305000
1!
1+!
1,!
19"
0:"
0;"
0<"
0="
1;!
08!
05!
02!
00!
#310000
0!
0+!
0,!
#315000
1!
1+!
1,!
1I"
0J"
0K"
0L"
0M"
0x
0w
0v
0u
1t
0<!
09!
16!
03!
16
07
08
09
0:
0:!
17!
14!
1-!
1<!
1=!
1:!
07!
04!
0=!
#320000
0!
0+!
0,!
#325000
1!
1+!
1,!
1="
10!
#330000
0!
0+!
0,!
#335000
1!
1+!
1,!
1M"
1x
1:
11!
0-!
#340000
0!
0+!
0,!
#345000
1!
1+!
1,!
1<"
0="
12!
00!
#350000
0!
0+!
0,!
#355000
1!
1+!
1,!
1L"
0M"
0x
1w
19
0:
1-!
#360000
0!
0+!
0,!
#365000
1!
1+!
1,!
1="
10!
#370000
0!
0+!
0,!
#375000
1!
1+!
1,!
1M"
1x
13!
1:
01!
0-!
14!
#380000
0!
0+!
0,!
#385000
1!
1+!
1,!
1;"
0<"
0="
15!
02!
00!
#390000
0!
0+!
0,!
#395000
1!
1+!
1,!
1K"
0L"
0M"
0x
0w
1v
06!
03!
18
09
0:
04!
1-!
16!
17!
14!
07!
#400000
0!
0+!
0,!
#405000
1!
1+!
1,!
1="
10!
#410000
0!
0+!
0,!
#415000
1!
1+!
1,!
1M"
1x
1:
11!
0-!
#420000
0!
0+!
0,!
#425000
1!
1+!
1,!
1<"
0="
12!
00!
#430000
0!
0+!
0,!
#435000
1!
1+!
1,!
1L"
0M"
0x
1w
19
0:
1-!
#440000
0!
0+!
0,!
#445000
1!
1+!
1,!
1="
10!
#450000
0!
0+!
0,!
#455000
1!
1+!
1,!
1M"
1x
13!
1:
01!
0-!
06!
04!
17!
#460000
0!
0+!
0,!
#465000
1!
1+!
1,!
1:"
0;"
0<"
0="
18!
05!
02!
00!
#470000
0!
0+!
0,!
#475000
1!
1+!
1,!
1J"
0K"
0L"
0M"
0x
0w
0v
1u
19!
16!
03!
17
08
09
0:
07!
14!
1-!
0<!
09!
0:!
17!
04!
1<!
1=!
1:!
0=!
#480000
0!
0+!
0,!
#485000
1!
1+!
1,!
1="
10!
#490000
0!
0+!
0,!
#495000
1!
1+!
1,!
1M"
1x
1:
11!
0-!
#500000
0!
0+!
0,!
#505000
1!
1+!
1,!
1<"
0="
12!
00!
#510000
0!
0+!
0,!
#515000
1!
1+!
1,!
1L"
0M"
0x
1w
19
0:
1-!
#520000
0!
0+!
0,!
#525000
1!
1+!
1,!
1="
10!
#530000
0!
0+!
0,!
#535000
1!
1+!
1,!
1M"
1x
13!
1:
01!
0-!
14!
#540000
0!
0+!
0,!
#545000
1!
1+!
1,!
1;"
0<"
0="
15!
02!
00!
#550000
0!
0+!
0,!
#555000
1!
1+!
1,!
1K"
0L"
0M"
0x
0w
1v
06!
03!
18
09
0:
04!
1-!
19!
16!
07!
14!
0<!
09!
0:!
17!
1<!
1=!
1:!
0=!
#560000
0!
0+!
0,!
#565000
1!
1+!
1,!
1="
10!
#570000
0!
0+!
0,!
#575000
1!
1+!
1,!
1M"
1x
1:
11!
0-!
#580000
0!
0+!
0,!
#585000
1!
1+!
1,!
1<"
0="
12!
00!
#590000
0!
0+!
0,!
#595000
1!
1+!
1,!
1L"
0M"
0x
1w
19
0:
1-!
#600000
0!
0+!
0,!
#605000
1!
1+!
1,!
1="
10!
#610000
0!
0+!
0,!
#615000
1!
1+!
1,!
1M"
1x
13!
1:
01!
0-!
06!
04!
19!
07!
0<!
0:!
1=!
#620000
0!
0+!
0,!
#625000
1!
1+!
1,!
18"
09"
0:"
0;"
0<"
0="
1>!
0;!
08!
05!
02!
00!
#630000
0!
0+!
0,!
#635000
1!
1+!
1,!
1H"
0I"
0J"
0K"
0L"
0M"
0x
0w
0v
0u
0t
1s
1?!
1<!
09!
16!
03!
15
06
07
08
09
0:
0=!
1:!
17!
14!
1-!
0?!
1@!
1=!
0:!
07!
04!
0@!
#640000
0!
0+!
0,!
#645000
1!
1+!
1,!
1="
10!
#650000
0!
0+!
0,!
#655000
1!
1+!
1,!
1M"
1x
1:
11!
0-!
#660000
0!
0+!
0,!
#665000
1!
1+!
1,!
1<"
0="
12!
00!
#670000
0!
0+!
0,!
#675000
1!
1+!
1,!
1L"
0M"
0x
1w
19
0:
1-!
#680000
0!
0+!
0,!
#685000
1!
1+!
1,!
1="
10!
#690000
0!
0+!
0,!
#695000
1!
1+!
1,!
1M"
1x
13!
1:
01!
0-!
14!
#700000
0!
0+!
0,!
#705000
1!
1+!
1,!
1;"
0<"
0="
15!
02!
00!
#710000
0!
0+!
0,!
#715000
1!
1+!
1,!
1K"
0L"
0M"
0x
0w
1v
06!
03!
18
09
0:
04!
1-!
16!
17!
14!
07!
#720000
0!
0+!
0,!
#725000
1!
1+!
1,!
1="
10!
#730000
0!
0+!
0,!
#735000
1!
1+!
1,!
1M"
1x
1:
11!
0-!
#740000
0!
0+!
0,!
#745000
1!
1+!
1,!
1<"
0="
12!
00!
#750000
0!
0+!
0,!
#755000
1!
1+!
1,!
1L"
0M"
0x
1w
19
0:
1-!
#760000
0!
0+!
0,!
#765000
1!
1+!
1,!
1="
10!
#770000
0!
0+!
0,!
